Simulation-Based Verification for NFL WR 40-yard Dash Extremes
…
print(true_pars_neg)

##          mu       sigma          xi 
## -4.30376738  0.04274993 -0.11487908

truth_tbl <- tibble(
RL_period  = periods,
true_neg   = true_RL_neg,
true_speed = true_RL_speed
)

print(truth_tbl)

## # A tibble: 21 × 3
##    RL_period true_neg true_speed
##        <dbl>    <dbl>      <dbl>
##  1         5    -4.24       9.42
##  2        10    -4.22       9.48
##  3        15    -4.21       9.51
##  4        20    -4.20       9.53
##  5        25    -4.19       9.55
##  6        26    -4.19       9.55
##  7        30    -4.18       9.56
##  8        35    -4.18       9.57
##  9        40    -4.18       9.58
## 10        45    -4.17       9.59
## # ℹ 11 more rows
…
print(head(bias_rmse_all, 30))

## # A tibble: 30 × 8
##    RL_period years   bias_neg rmse_neg sd_neg  bias_speed rmse_speed sd_speed
##        <dbl> <dbl>      <dbl>    <dbl>  <dbl>       <dbl>      <dbl>    <dbl>
##  1         5     5 -0.0125      0.0384 0.0363 -0.0271         0.0845   0.0800
##  2         5    10 -0.00364     0.0219 0.0216 -0.00783        0.0486   0.0480
##  3         5    15 -0.00209     0.0175 0.0174 -0.00448        0.0388   0.0386
##  4         5    20 -0.00165     0.0157 0.0156 -0.00352        0.0349   0.0348
##  5         5    25 -0.00162     0.0135 0.0134 -0.00350        0.0300   0.0298
##  6         5    26 -0.00156     0.0134 0.0134 -0.00337        0.0299   0.0297
##  7         5    30 -0.00120     0.0128 0.0128 -0.00259        0.0285   0.0284
##  8         5    35 -0.00126     0.0142 0.0142 -0.00270        0.0319   0.0318
##  9         5    40 -0.000626    0.0124 0.0124 -0.00131        0.0277   0.0276
## 10         5    45 -0.0000521   0.0149 0.0149  0.00000244     0.0336   0.0336
## # ℹ 20 more rows
…
